<svg xmlns="http://www.w3.org/2000/svg" xmlns:xlink="http://www.w3.org/1999/xlink" viewBox="0 0 61.24847 36.26057">
  <defs>
    <linearGradient id="bb8abb0b-8d6f-4b61-b1e3-b8893d3efb3e" data-name="Безымянный градиент 255" x1="9.00004" y1="16.30868" x2="24.10561" y2="27.54686" gradientUnits="userSpaceOnUse">
      <stop offset="0.16667" stop-color="#009087"/>
      <stop offset="1" stop-color="#00eec6"/>
    </linearGradient>
    <linearGradient id="af939b94-f39f-4df2-bc36-774deca1a1a9" data-name="Безымянный градиент 187" x1="-0.2936" y1="24.5719" x2="8.32616" y2="19.17485" gradientUnits="userSpaceOnUse">
      <stop offset="0.34921" stop-color="#00d1b2"/>
      <stop offset="1" stop-color="#00bea7"/>
    </linearGradient>
    <linearGradient id="0f036d21-ae0c-40e9-b775-aa073ecae552" data-name="Безымянный градиент 156" x1="9.71698" y1="9.9462" x2="12.26753" y2="-3.61433" gradientUnits="userSpaceOnUse">
      <stop offset="0" stop-color="#00ffd1"/>
      <stop offset="0.84921" stop-color="#00d6ba"/>
    </linearGradient>
    <linearGradient id="c554b4f7-6b81-4df0-baca-7d2ea3a18696" data-name="Безымянный градиент 98" x1="16.48577" y1="12.45019" x2="14.59399" y2="15.81036" gradientUnits="userSpaceOnUse">
      <stop offset="0" stop-color="#00ffd1"/>
      <stop offset="0.96916" stop-color="#00d1b2"/>
    </linearGradient>
    <linearGradient id="ca6931a8-5dd7-4267-a34a-373f21549499" data-name="Безымянный градиент 247" x1="14.64874" y1="14.33754" x2="20.02155" y2="16.94763" gradientUnits="userSpaceOnUse">
      <stop offset="0" stop-color="#009c8c"/>
      <stop offset="0.71429" stop-color="#00bca5"/>
    </linearGradient>
    <linearGradient id="845b2025-7822-4273-9f4d-f0e60fe75f8e" x1="16.02828" y1="23.99337" x2="14.1365" y2="27.35354" xlink:href="#c554b4f7-6b81-4df0-baca-7d2ea3a18696"/>
    <linearGradient id="0aa95124-1042-42df-aadc-f7dcf7ef1ff5" data-name="Безымянный градиент 252" x1="14.00589" y1="25.81207" x2="19.39777" y2="28.38229" gradientUnits="userSpaceOnUse">
      <stop offset="0" stop-color="#009c91"/>
      <stop offset="0.68651" stop-color="#00c6ab"/>
    </linearGradient>
  </defs>
  <title>Ресурс 1</title>
  <g id="e433b956-bfbe-484b-9a71-8029acb1c7b9" data-name="Слой 2">
    <g id="343656d7-3216-4316-ab9b-478261af70c7" data-name="Слой 1">
      <polygon points="8.958 36.261 20.902 29.354 20.902 5.18 8.958 12.087 8.958 36.261" style="fill: url(#bb8abb0b-8d6f-4b61-b1e3-b8893d3efb3e)"/>
      <polygon points="0 31.08 8.958 36.261 8.958 12.087 0 6.907 0 31.08" style="fill: url(#af939b94-f39f-4df2-bc36-774deca1a1a9)"/>
      <polygon points="0 6.907 11.944 0 20.902 5.18 8.958 12.087 0 6.907" style="fill: url(#0f036d21-ae0c-40e9-b775-aa073ecae552)"/>
      <path d="M18.88244,11.70919l-1.66133-.96073-.04658-.02693-.01606-.00929v.0017a2.11758,2.11758,0,0,0-2.071.22864,6.61269,6.61269,0,0,0-2.986,5.1801,2.1463,2.1463,0,0,0,.8061,1.88862v.00628l.05412.03129.03013.01742,1.63973.94823v-.946a3.4949,3.4949,0,0,0,.45589-.21923,6.69664,6.69664,0,0,0,2.94823-4.63594l.84671.48964Z" style="fill: url(#c554b4f7-6b81-4df0-baca-7d2ea3a18696)"/>
      <path d="M19.79743,13.66144a6.61268,6.61268,0,0,1-2.986,5.1801c-1.64911.95365-2.986.18061-2.986-1.72663a6.61268,6.61268,0,0,1,2.986-5.1801C18.46056,10.98116,19.79743,11.7542,19.79743,13.66144Z" style="fill: url(#ca6931a8-5dd7-4267-a34a-373f21549499)"/>
      <path d="M18.42494,23.25237l-1.66133-.96073-.04658-.02693-.01606-.00929v.0017a2.11758,2.11758,0,0,0-2.071.22864,6.61269,6.61269,0,0,0-2.986,5.1801,2.1463,2.1463,0,0,0,.8061,1.88862v.00628l.05412.03129.03013.01742,1.63973.94823v-.946A3.4949,3.4949,0,0,0,14.63,29.3925a6.69664,6.69664,0,0,0,2.94823-4.63594l.84671.48964Z" style="fill: url(#845b2025-7822-4273-9f4d-f0e60fe75f8e)"/>
      <path d="M19.33993,25.20463a6.61268,6.61268,0,0,1-2.986,5.1801c-1.64911.95365-2.986.18061-2.986-1.72663a6.61268,6.61268,0,0,1,2.986-5.1801C18.00307,22.52434,19.33993,23.29738,19.33993,25.20463Z" style="fill: url(#0aa95124-1042-42df-aadc-f7dcf7ef1ff5)"/>
    </g>
    <g id="5e28d6c1-153f-43d0-a720-cdff78e9c5bc" data-name="Слой 2">
      <g>
        <path d="M33.07171,12.29916a19.87793,19.87793,0,0,1,3.6665-.30762c2.042,0,3.35986.374,4.28174,1.21A3.69767,3.69767,0,0,1,42.184,16.01791a3.89337,3.89337,0,0,1-2.78857,3.78467v.06592c1.1416.396,1.82227,1.45215,2.17383,2.99219a23.61921,23.61921,0,0,0,1.1416,4.0708H40.73479a19.24772,19.24772,0,0,1-.98828-3.54248c-.439-2.04639-1.22949-2.81641-2.96436-2.88232H34.98186v6.4248H33.07171Zm1.91016,6.75537H36.936c2.042,0,3.3374-1.12256,3.3374-2.81641,0-1.91455-1.3833-2.75049-3.40332-2.77246a7.85287,7.85287,0,0,0-1.88818.17578Z"/>
        <path d="M46.79876,12.1014V26.93148H44.8886V12.1014Z"/>
        <path d="M50.13811,26.93148V12.1014h2.08594l4.74268,7.50293a42.05384,42.05384,0,0,1,2.65674,4.81885l.04395-.022c-.17578-1.98047-.21973-3.78467-.21973-6.09473V12.1014h1.80078V26.93148H59.31634l-4.69922-7.5249a47.1945,47.1945,0,0,1-2.7666-4.95068l-.06592.022c.10986,1.87012.15381,3.65234.15381,6.1167v6.33691Z"/>
      </g>
    </g>
  </g>
</svg>
